A-twitter-data-collection.utf8.md
…
## Parsed with column specification:
## cols(
##   country_info = col_character(),
##   lang = col_character(),
##   n = col_double()
## )

 country_language_distribution

## # A tibble: 966 x 3
##    country_info lang      n
##    <chr>        <chr> <dbl>
##  1 ARM          ar        1
##  2 AUT          ar        9
##  3 AZE          ar        6
##  4 BEL          ar        7
##  5 BGR          ar        3
##  6 BIH          ar        1
##  7 CHE          ar        5
##  8 CZE          ar        1
##  9 DEU          ar       78
## 10 DNK          ar        6
## #  with 956 more rows
