B-fractionalization-index.utf8.md
…
library(readxl)
library(tidyverse)
library(countrycode)
library(stats)
library(gridExtra)

country_lang <- read_csv("country_language_distribution.csv")

As we think we should clean the country name before we calculete the number of tweets for each country, In part A we have already used contrycode deal with the contry name, which aggregated region name like UK:ireland, UK:scotland to UKR. so here, we can caculated directly from the csv we get.

# To get the total number of tweets for each country.
country_sum <- country_lang %>% group_by(country_info) %>% summarise(SUM = sum(n))
country_sum 

## # A tibble: 62 x 2
##    country_info   SUM
##    <chr>        <dbl>
##  1 AFG             46
##  2 ALB             48
##  3 AND             19
##  4 ARM             38
##  5 AUT            493
##  6 AZE            111
##  7 BEL           1274
##  8 BGR            141
##  9 BIH            282
## 10 BLR            264
## #  with 52 more rows

Spread the sum of each country by country name.

country_with_sum <- country_lang %>% left_join(country_sum)

## Joining, by = "country_info"

country_index <- country_with_sum[order(country_with_sum$country_info),]
country_index

## # A tibble: 966 x 4
##    country_info lang      n   SUM
##    <chr>        <chr> <dbl> <dbl>
##  1 AFG          en       26    46
##  2 AFG          fa       10    46
##  3 AFG          in        1    46
##  4 AFG          nl        1    46
##  5 AFG          ps        4    46
##  6 AFG          und       4    46
##  7 ALB          de        1    48
##  8 ALB          en       15    48
##  9 ALB          et        3    48
## 10 ALB          fr        2    48
## #  with 956 more rows

To caculate the index using the equation.

country_index <- country_index %>% group_by(country_info) %>% summarise(index = 1- sum((n/SUM)^2))
country_index

## # A tibble: 62 x 2
##    country_info index
##    <chr>        <dbl>
##  1 AFG          0.617
##  2 ALB          0.717
##  3 AND          0.681
##  4 ARM          0.551
##  5 AUT          0.729
##  6 AZE          0.635
##  7 BEL          0.777
##  8 BGR          0.739
##  9 BIH          0.668
## 10 BLR          0.279
## #  with 52 more rows
…
# drop 
df <- df[complete.cases(df$Country),]

cat("Number of row after drop row:", nrow(df), "\n") 

## Number of row after drop row: 215

names(df) <- c("country_info", "xls_index")

my_metric <- country_index %>% left_join(df, by = "country_info")

my_metric

## # A tibble: 62 x 3
##    country_info index xls_index
##    <chr>        <dbl>     <dbl>
##  1 AFG          0.617    0.614 
##  2 ALB          0.717    0.0399
##  3 AND          0.681    0.685 
##  4 ARM          0.551    0.129 
##  5 AUT          0.729    0.152 
##  6 AZE          0.635    0.205 
##  7 BEL          0.777    0.541 
##  8 BGR          0.739    0.303 
##  9 BIH          0.668    0.675 
## 10 BLR          0.279    0.467 
## #  with 52 more rows
…
value to show huge difference.

difference <- 0.3 

correlation <- cor(my_metric$index, my_metric$xls_index,use = "complete.obs")

cat("The correlation is:", correlation)

## The correlation is: 0.08935256

with_difference <- my_metric %>% filter(abs(index-xls_index) > difference)

with_difference

## # A tibble: 31 x 3
##    country_info index xls_index
##    <chr>        <dbl>     <dbl>
##  1 ALB          0.717    0.0399
##  2 ARM          0.551    0.129 
##  3 AUT          0.729    0.152 
##  4 AZE          0.635    0.205 
##  5 BGR          0.739    0.303 
##  6 CZE          0.690    0.323 
##  7 DEU          0.732    0.164 
##  8 DNK          0.700    0.105 
##  9 EST          0.807    0.494 
## 10 FIN          0.571    0.141 
## #  with 21 more rows
…
names(xls_data) <- c("Source", "Date", "Country", "Language", 
                     "Number", "Percent", "Language_Index","Notes")

xls_data <- xls_data %>% select(Country, Language, Percent)

xls_data$Country <- countrycode(xls_data$Country, origin = 'country.name', destination = 'genc3c')

## Warning in countrycode(xls_data$Country, origin = "country.name", destination = "genc3c"): Some values were not matched unambiguously: Cote d'lvoire, Micronesia, Netherlands Antilles, Yugoslavia

xls_data

## # A tibble: 1,707 x 3
##    Country Language        Percent
##    <chr>   <chr>             <dbl>
##  1 AFG     Pashai            0.618
##  2 AFG     Balochi           0.927
##  3 AFG     Dari (Persian)   32.0  
##  4 AFG     Nuristani group   0.773
##  5 AFG     Pamir group       0.618
##  6 AFG     Pashto           52.4  
##  7 AFG     Turkmen           1.93 
##  8 AFG     Uzbek             8.81 
##  9 AFG     Other             1.89 
## 10 ALB     Albanian         98.0  
## #  with 1,697 more rows

GBR_xls <-xls_data %>% filter(Country == "GBR")
GBR_tweet <- country_lang %>% filter(country_info == "GBR")
GBR_tweet

## # A tibble: 45 x 3
##    country_info lang      n
##    <chr>        <chr> <dbl>
##  1 GBR          ar      293
##  2 GBR          ca       51
##  3 GBR          cs       22
##  4 GBR          cy       59
##  5 GBR          da       26
##  6 GBR          de       47
##  7 GBR          el       96
##  8 GBR          en    25196
##  9 GBR          es      625
## 10 GBR          et       34
## #  with 35 more rows
…
